{"step": 0, "male": {
    "1000": {
        "user_id": "1000",
        "question": "user1000 question",
        "iterator": 2,
        "username": "Администратор",
        "avatar": "admin-avatar.jpeg",
        "birth_date": null,
        "vip": 0,
        "color": null,
        "rating": 5,
        "ref_id": null
    },
    "1006": {
        "user_id": "1006",
        "question": "user1006 question",
        "iterator": 3,
        "username": "Hayko Tevanyan",
        "avatar": "wtciTdL9wD8.jpg",
        "birth_date": null,
        "vip": 0,
        "color": null,
        "rating": 70,
        "ref_id": null
    },
    "2146": {
        "user_id": "2146",
        "question": "qqqq",
        "iterator": 1,
        "username": "Арам Петросян",
        "avatar": "sf-QZWlHZ4c.jpg",
        "birth_date": "1988-02-02T00:00:00.000Z",
        "vip": 1,
        "color": "3",
        "rating": 139,
        "ref_id": null
    }
}, "female": {
    "1008": {
        "user_id": "1008",
        "question": "user1008 question",
        "iterator": 1,
        "username": "Анна Ростовцева",
        "avatar": "d_7540edac.jpg",
        "birth_date": null,
        "vip": 0,
        "color": null,
        "rating": 91,
        "ref_id": null
    },
    "1009": {
        "user_id": "1009",
        "question": "user1009 question",
        "iterator": 2,
        "username": "Екатерина Морозова",
        "avatar": "d_6f7317cd.jpg",
        "birth_date": null,
        "vip": 0,
        "color": null,
        "rating": 104,
        "ref_id": null
    },
    "1012": {
        "user_id": "1012",
        "question": "user1012 question",
        "iterator": 3,
        "username": "Елена Мосягина",
        "avatar": "thtz-OvXH94.jpg",
        "birth_date": null,
        "vip": 0,
        "color": null,
        "rating": 45,
        "ref_id": null
    }
}, "chosen": {}, "answersReport": {
    "1000": 0,
    "1006": 0,
    "1008": 0,
    "1009": 0,
    "1012": 0,
    "2146": 0
}, "commentReport": {
    "1000": 0,
    "1006": 0,
    "1008": 0,
    "1009": 0,
    "1012": 0,
    "2146": 0
}, "estimate": {}, "users": [2146, 1000, 1006, 1008, 1009, 1012], "maleCount": 3, "femaleCount": 3, "playing": true, "answerCount": 0, "lastAnswerCount": 0, "step1checked": false, "step2checked": false, "step3checked": false, "step4checked": false, "keys": {}, "stepDuration": {
    "step1": 90,
    "step2": 60,
    "step3": 25
}, "iterator": "d33652ff-0900-26ea-a72d-16889a024b5b", "dateUpdate": "2014-04-26T07:12:54.688Z", "action": "gameResponse", "module": "game", "serverTime": "2014-04-26T07:12:54.688Z"}